Seminar 3, Example 4

Section 1

Constructor with args of Animal
Constructor with args of Dog
Default constructor of Animal
Constructor with args of Cat
Destructor of Cat
Destructor of Animal
Destructor of Dog
Destructor of Animal

Section 2

Constructor with args of Animal
Constructor with args of Dog
Default constructor of Animal
Constructor with args of Cat
Destructor of Animal
Destructor of Animal

